{"hash":"4281aae9595c151b4abc77ca681b7344ab1299d1","data":{"allPost":{"totalCount":43,"pageInfo":{"totalPages":5,"currentPage":2,"isFirst":false,"isLast":false},"edges":[{"node":{"id":"e2707f7e137fb8e978367df909480c3c","title":"공짜로 사용가능한 일본풍 무료 일러스트 - ダ鳥獣ギ画","timeToRead":1,"description":"일본에서 가장 오래된 만화라고 알려져 있는 조수인물기화(鳥獣人物戯画)에서 사용된 동물들의 화풍을 사용하여 제작된 개구리, 토끼등의 다양한 무료 일러스트로 제공하고 있는 ダ鳥獣ギ画(DACHOJU-GIGA)사이트를 소개합니다.","date":"2017/05/07","path":"/free-illust-dachojugiga/"}},{"node":{"id":"9616175ebe44c70fb8b6d9206e9d4980","title":"스포츠관련 디자인에 어울려 보이는 무료 폰트 - ARGON","timeToRead":1,"description":"Argon는 산세리프 타입의 오픈타입(OTF)폰트로 기하학적이면서 그래픽적인 느낌의 스포츠 관련 디자인 작업시에 어울릴 것 같아 보이는 폰트라고 생각됩니다.","date":"2017/04/30","path":"/free-font-argon/"}},{"node":{"id":"2c4b16cec0d7bbd0df882e06d8821a9f","title":"코딩의 작업효율을 올려주는 Eclipse 단축키","timeToRead":1,"description":"몇년간 작업 하면서, 매일같이 사용하고 있는 Eclipse. 작업효율을 높이기에 단축키는 꼭 필요한 기능 중 한가지라 생각됩니다. 그중에서도 사용 빈도가 가장 높은, 하루도 빼먹지 않고 사용중인 단축키만 추려봤습니다.","date":"2017/04/20","path":"/eclipse-shortcut-key/"}},{"node":{"id":"85e048b970de89362383dc8397f72158","title":"벤더 프리픽스(vendor prefix) 정도는 알고 가셔야죠?","timeToRead":2,"description":"CSS3가 완전히 정착되면 없어질 것으로 예상되고 있는  벤더 프리픽스 (vendor prefix)는 각각의 브라우저에서 판독이 가능한 접두어를 붙여서 해당 브라우저에서 인식할 수 있게 하는 것을 지칭하고 있습니다. 개념과 사용법에 대하여 알아 보았습니다.","date":"2017/02/08","path":"/vender-prefix/"}},{"node":{"id":"3bf273629d10563e92089bba298232f1","title":"reset.css 와 Normalize.css","timeToRead":2,"description":"사이트 구축시 사용되는 CSS중에서 가장 많이 알려져 있고, 알려져 있는 만큼 많이 사용되고 있는 것 중에서 비슷하면서도 다른 성격을 가지고 있는 reset.css와 normalize.css에 대해서 살짝 알아보았습니다.","date":"2017/01/06","path":"/resetcss-normalizecss/"}},{"node":{"id":"83579389d8271825acf441e21c0448a2","title":"생각보다 쉬운 Git 사용해보기","timeToRead":3,"description":"업무에서 백업용으로만 사용하던 git. 혼자서 작업할 경우 필요하다고 생각되는 생각보다 쉬운 사용법(?)을 정리해봤습니다.","date":"2016/09/10","path":"/easier-using-git/"}},{"node":{"id":"fa3cee5827b05007145c0bf6aa58a69e","title":"좀더 좋은 CSS를 만들기 위하여 StyleStats로 CSS 파일 분석하기","timeToRead":2,"description":"CSS작업시 사용된 각종 정보를 분석하여 보여줍니다. 제공되는 Class, ID, Font Size등의 여러 통계정보를 파악하여 좀더 좋은 CSS 파일을 작성할 수 있게 도와주는 툴인 StyleStats에 대한 소개입니다.","date":"2016/08/17","path":"/stylestats/"}},{"node":{"id":"32b1a75c0018489db34846d5f2b8d109","title":"무료 포토샵 텍스트 이펙트","timeToRead":1,"description":"free Photoshop text effects 중에서 타이틀에 사용하면 어울리지 않을까 싶은 6가지를 추려 봤습니다.","date":"2016/07/28","path":"/free-photoshop-text-effects/"}},{"node":{"id":"60c3c4f17e5933a417170f2ebee5e272","title":"워드프레스 - 한글(2byte) 인식 문제","timeToRead":1,"description":"한글(2byte)의 특성으로 생기는 문제라고 생각되는 구글 Search Console에서 크롤링오류가 있었습니다. URL오류의 문제를 인식하는 부분에서 생기는 것으로 파악되었으며, htaccess의 수정으로 일부 해결할 수 있었습니다.","date":"2016/07/26","path":"/wp-2byte-recognition-problems/"}},{"node":{"id":"e13c664245605854f5cd83587a63a81f","title":"헤드라인에 적합해 보이는 - Bonkers","timeToRead":1,"description":"이벤트성 포스텅등의 타이틀에 적합해 보이는 산세리프 타입의 Bonkers 폰트를 소개합니다.","date":"2016/07/24","path":"/free-font-bonkers/"}}]}},"context":{}}