{"hash":"826163eca505bbf7d6ae3cf7775a2fd61b098b29","data":{"allPost":{"totalCount":42,"pageInfo":{"totalPages":5,"currentPage":1,"isFirst":true,"isLast":false},"edges":[{"node":{"id":"f82e03a0a38a3a6aa7c6005846489bed","title":"Gridsome을 Git Action으로 GitHub Pages에 배포하기","timeToRead":4,"description":"Git Action을 사용해서 Gridsomse을 GitHub Pages에 배포하는 과정을 다루고 있습니다. 새해를 맞이해서 Vue에 대해 공부해보겠다는 욕심으로 블로그를 hexo에서 Gridsome으로 변경해보면서 정리한 내용입니다.","date":"2020/01/13","path":"/changed-gridsome/"}},{"node":{"id":"f60dca60c12fd8c3bfe23d600e749d9a","title":"HTML의 Table 작업에 사용하기 편한 무료 에디터","timeToRead":3,"description":"HTML의 Table을 손쉽게 만들 수 있는 무료 에디터를 알아봤습니다. 간단한 테이블이라면 유료인 Dreamweaver를 대체할 수 있는 프로그램들입니다.","date":"2019/05/19","path":"/free-table-editor/"}},{"node":{"id":"6d44a7c2d5fa7bb518e786df3b76e5ee","title":"블로그를 이전하였습니다.","timeToRead":1,"description":"블로그를 워드프레스에서 hexo로 이전하였습니다.","date":"2019/03/15","path":"/blogmove/"}},{"node":{"id":"59c4deaab4f987e79986efa196884e49","title":"페르소나에 사용할 사용자의 사진이 필요하다면 - UI Faces","timeToRead":1,"description":"프로젝트를 진행할 경우, 페르소나가 필요할 때가 있습니다. 이때 최대한 사실에 근거한 느낌을 주기 위하여 사용자 타겟 정보에 실제 인물의 사진을 사용하는 편입니다. UI Faces는 Sketch의 플러그인으로 이 과정을 쉽게 도와줍니다.","date":"2018/04/17","path":"/uifaces/"}},{"node":{"id":"e3aac877b70a68569dbeb7c6d25514ab","title":"50가지 주방관련 무료 아이콘","timeToRead":1,"description":"흔하지 않은 주방관련 아이콘 50가지가 PNG, SVG, EPS의 파일 형식으로 포함되어 있는 무료 아이콘을 소개합니다. 무료이기 때문에 개인, 상용에 관계없이 사용가능합니다. 조리기구나 식기등의 아이콘이 필요하다면 참고해 보시기 바랍니다.","date":"2018/03/01","path":"/free-icon-kitchen/"}},{"node":{"id":"5fbf7153ffd8354eaec75b15e36fa883","title":"앞으로의 배색은 인공지능에게 맡기는 시대 - Khroma","timeToRead":2,"description":"흔하지 않은 주방관련 아이콘 50가지가 PNG, SVG, EPS의 파일 형식으로 포함되어 있는 무료 아이콘을 소개합니다. 무료이기 때문에 개인, 상용에 관계없이 사용가능합니다. 조리기구나 식기등의 아이콘이 필요하다면 참고해 보시기 바랍니다.","date":"2018/02/26","path":"/ai-colortool-khroma/"}},{"node":{"id":"9a7452f51fa8e681ee9a15ab7e5eadcc","title":"11만원 상당의 유료폰트가 기간한정으로 무료 다운로드 가능! 놓치지 마세요!","timeToRead":1,"description":"2018년 2월 26일까지 총액 $104의 유료폰트 번들을 무료 다운로드! 총액 11만원 상당의 유료폰트를 무료로 다운받을 수 있는 기회를 놓치지 마시기 바랍니다. 이번 기회를 놓치지 마세요!","date":"2018/02/02","path":"/free-font-bundle-2018/"}},{"node":{"id":"bae2303645ac5af5d027749dc6965d4d","title":"여자여자스러운 분위기가 물씬 풍기는 무료 일러스트 - girlysozai","timeToRead":1,"description":"2018년 2월 26일까지 총액 $104의 유료폰트 번들을 무료 다운로드! 총액 11만원 상당의 유료폰트를 무료로 다운받을 수 있는 기회를 놓치지 마시기 바랍니다. 이번 기회를 놓치지 마세요!","date":"2018/01/22","path":"/free-illust-girlysozai/"}},{"node":{"id":"5ed072d77a04a6c3c41f8b5d42cd3908","title":"매일 갱신중인 심플하고 유머러스한 무료 일러스트 - SASHIE","timeToRead":1,"description":"2018년 2월 26일까지 총액 $104의 유료폰트 번들을 무료 다운로드! 총액 11만원 상당의 유료폰트를 무료로 다운받을 수 있는 기회를 놓치지 마시기 바랍니다. 이번 기회를 놓치지 마세요!","date":"2017/06/29","path":"/free-illust-sashie/"}},{"node":{"id":"e2707f7e137fb8e978367df909480c3c","title":"공짜로 사용가능한 일본풍 무료 일러스트 - ダ鳥獣ギ画","timeToRead":1,"description":"일본에서 가장 오래된 만화라고 알려져 있는 조수인물기화(鳥獣人物戯画)에서 사용된 동물들의 화풍을 사용하여 제작된 개구리, 토끼등의 다양한 무료 일러스트로 제공하고 있는 ダ鳥獣ギ画(DACHOJU-GIGA)사이트를 소개합니다.","date":"2017/05/07","path":"/free-illust-dachojugiga/"}}]}},"context":{}}