{"hash":"826163eca505bbf7d6ae3cf7775a2fd61b098b29","data":{"allPost":{"totalCount":42,"pageInfo":{"totalPages":5,"currentPage":3,"isFirst":false,"isLast":false},"edges":[{"node":{"id":"7d5f892714d6a8ac50dfff517387de6e","title":"도메인별 스타일(CSS) 지정하기","timeToRead":1,"description":"스타일(CSS)을 도메인별로 지정하는 방법에 대하여 알아보겠습니다.","date":"2016/07/19","path":"/different-domain-css/"}},{"node":{"id":"1a0ade17536dc6faf29fd0f8be65376c","title":"아름다운 그라데이션을 간단하게 - Blend","timeToRead":1,"description":"Blend 를 사용하게 되면 힘들게 일일이 소스를 작성하지 않아도 간단하게 CSS3로 된 그라데이션을 만들 수 있습니다","date":"2016/07/17","path":"/css3-gradients-generate-blend/"}},{"node":{"id":"477f792bf4d95aa0f68ad8b16e96945c","title":"패션관련 디자인에 적합해 보이는 무료폰트 - Glamor","timeToRead":1,"description":"세련되고 깔끔한 폰트 패밀리로 패션관련 디자인에 적합해 보이는 폰트가 있어 소개드립니다.","date":"2016/07/12","path":"/freefont-glamor/"}},{"node":{"id":"67ebd78bd354d384220884beeffaf431","title":"코딩의 작업효율을 올려주는 Brackets 확장기능","timeToRead":3,"description":"이제는 많이 안정화 되었다고 생각되는 Adobe 'Brackets'로 코딩작업시에 작업시간을 단축시켜주어 업무효율을 올려줄것이라 기대되는 플러그인들을 위주로 정리해 보았습니다.","date":"2016/07/08","path":"/brackets-extension/"}},{"node":{"id":"3f75510ce5af3125126b8927259c7311","title":"모바일 웹페이지 디버깅에 적합한 weinre","timeToRead":2,"description":"모바일 웹페이지를 작업할 경우, node.js기반의 weinre를 사용하게 되면 케이블을 연결할 필요도 없고 iPhone/Android의 OS나 여타 단말기 종류에도 제한을 받지 않는 방식으로 디버깅 작업이 가능합니다.","date":"2016/01/01","path":"/weinre-mobile-debugging/"}},{"node":{"id":"929b28472fcde272ee6cd7066d7f121f","title":"펀치로 구멍을 뚫어 놓은 느낌을 주는 무료폰트 - perfograma","timeToRead":1,"description":"perfograma는 구멍뚫는 펀치로 구멍을 뚫어 놓은 느낌을 주며 깔끔하게 디자인 되어 있어 호감이 가는 폰트로 명함이나 봉투등에 사용하면 뭔가 세련된 느낌을 줄 수 있을 것 같다는 생각이 듭니다.","date":"2015/12/26","path":"/perfograma-free-font/"}},{"node":{"id":"8a120b16496eac7d05c30304d8f54ced","title":"폴리곤으로 만들어진 느낌을 주는 무료폰트 - POLYA","timeToRead":1,"description":"POLYA라는 폴리곤으로 만들어진 느낌을 주는 무료폰트가 있어 소개해 봅니다. 파티같은 정신없는 분위기나 조금 미래적인 분위기에 사용하면 어울릴지도 모르겠습니다.","date":"2015/09/06","path":"/polya-free-font/"}},{"node":{"id":"1f853a8f78129915843795e605281a0a","title":"Copic Marker의 컬러를 모아둔 Photoshop용 Swatches - Copic Swatches","timeToRead":1,"description":"일러스트나 디자인 업계에서는 유명한 Copic Marker에서 제공하는 컬러를 Photoshop Swatches 로 만들어둔 Copic Swatches를 소개합니다.","date":"2015/08/31","path":"/photoshop-copic-swatches/"}},{"node":{"id":"7c3ea0b209991cace93c6404598a12dd","title":"워드프레스 테마 작업전에 익혀두면 좋을 SEO지식","timeToRead":2,"description":"기본적으로 SEO에 최적화 되어 있다는 평을 받고 있는 워드프레스용 테마를 제작할 경우에 기본적으로 고려하면서 제작을 해두면 사이트의 트래픽향상에 도움이 될것이라 생각되는 몇가지를 소개해 드립니다.","date":"2015/08/18","path":"/wordpress-theme-seo-setting/"}},{"node":{"id":"731bf59c08b342f99a588ee4c68bff3d","title":"코딩의 작업효율을 올려주는 Sublime Text Package","timeToRead":2,"description":"Sublime Text Package중에서 작업효율을 올려주는 것들을 위주로 정리해 보았습니다. 익숙해지면 분명 작업시간이 단축되는 것을 체감하실 수 있을겁니다.","date":"2015/06/29","path":"/sublime-text-package/"}}]}},"context":{}}