{"hash":"826163eca505bbf7d6ae3cf7775a2fd61b098b29","data":{"allPost":{"totalCount":42,"pageInfo":{"totalPages":5,"currentPage":5,"isFirst":false,"isLast":true},"edges":[{"node":{"id":"ed0e5c35894bede9df69c5400bb2f0cf","title":"Photoshop에서 가이드라인 작업에 도움을 주는  - GuideGuide","timeToRead":1,"description":"규칙적인 간격의 그리드를 그려야 할 경우 반복작업은 당연한 거고, 1px차이때문에 다시 계산해야 하는 경우도 생기는등, 짜증이 나기도 하는데 GuideGuide를 사용하면 어느정도는 편안해 질 수 있습니다. 수치만 제대로 입력하면 한번에 생성되는 가이드는 업무 속도를 어느정도는 개선시켜줄거라 생각됩니다.","date":"2015/01/20","path":"/photoshop-guideguide/"}},{"node":{"id":"c7516a4be0c07f13d6144c29e6e4238c","title":"삽질시작","timeToRead":1,"description":"삽질이 경우에 따라서는 꼭 헛된일이라고만 할 수는 없는것이 누구나 삽질을 해 보고 나서야, 실수를 통해 과정을 알 수 있고 좀더 수월하게 같은 실수 없이 반복할 수 있게끔 되는것이라 생각됩니다. 주로 프론트엔드의 업무를 하는데 있어 시작하는 누군가, 모르고 있던 누군가에게 도움이 된다면 좋을 것 같은 것들을 그동안 모아뒀던 서랍장에서 하나하나 꺼내가면서 정리해볼 생각입니다.","date":"2015/01/18","path":"/sapjil-start/"}}]}},"context":{}}